{
  "title": "WebDB-dashboard",
  "sites": [
    {
      "name": "bg0",
      "title": "bg0",
      "url": "https://bg0.webtech-uva.nl"
    },
    {
      "name": "bg1",
      "title": "bg1",
      "url": "https://bg1.webtech-uva.nl"
    },
    {
      "name": "bg2",
      "title": "bg2",
      "url": "https://bg2.webtech-uva.nl"
    },
    {
      "name": "bg3",
      "title": "bg3",
      "url": "https://bg3.webtech-uva.nl"
    },
    {
      "name": "in0",
      "title": "in0",
      "url": "https://in0.webtech-uva.nl"
    },
    {
      "name": "in1",
      "title": "in1",
      "url": "https://in1.webtech-uva.nl"
    },
    {
      "name": "in2",
      "title": "in2",
      "url": "https://in2.webtech-uva.nl"
    },
    {
      "name": "in3",
      "title": "in3",
      "url": "https://in3.webtech-uva.nl"
    },
    {
      "name": "in4",
      "title": "in4",
      "url": "https://in4.webtech-uva.nl"
    },
    {
      "name": "in5",
      "title": "in5",
      "url": "https://in5.webtech-uva.nl"
    },
    {
      "name": "in6",
      "title": "in6",
      "url": "https://in6.webtech-uva.nl"
    },
    {
      "name": "in7",
      "title": "in7",
      "url": "https://in7.webtech-uva.nl"
    },
    {
      "name": "in8",
      "title": "in8",
      "url": "https://in8.webtech-uva.nl"
    },
    {
      "name": "in9",
      "title": "in9",
      "url": "https://in9.webtech-uva.nl"
    },
    {
      "name": "in10",
      "title": "in10",
      "url": "https://in10.webtech-uva.nl"
    },
    {
      "name": "in11",
      "title": "in11",
      "url": "https://in11.webtech-uva.nl"
    },
    {
      "name": "in12",
      "title": "in12",
      "url": "https://in12.webtech-uva.nl"
    },
    {
      "name": "in13",
      "title": "in13",
      "url": "https://in13.webtech-uva.nl"
    },
    {
      "name": "in14",
      "title": "in14",
      "url": "https://in14.webtech-uva.nl"
    },
    {
      "name": "in15",
      "title": "in15",
      "url": "https://in15.webtech-uva.nl"
    },
    {
      "name": "in16",
      "title": "in16",
      "url": "https://in16.webtech-uva.nl"
    },
    {
      "name": "in17",
      "title": "in17",
      "url": "https://in17.webtech-uva.nl"
    },
    {
      "name": "in18",
      "title": "in18",
      "url": "https://in18.webtech-uva.nl"
    },
    {
      "name": "in19",
      "title": "in19",
      "url": "https://in19.webtech-uva.nl"
    },
    {
      "name": "in20",
      "title": "in20",
      "url": "https://in20.webtech-uva.nl"
    },
    {
      "name": "in21",
      "title": "in21",
      "url": "https://in21.webtech-uva.nl"
    },
    {
      "name": "in22",
      "title": "in22",
      "url": "https://in22.webtech-uva.nl"
    },
    {
      "name": "in23",
      "title": "in23",
      "url": "https://in23.webtech-uva.nl"
    },
    {
      "name": "in24",
      "title": "in24",
      "url": "https://in24.webtech-uva.nl"
    },
    {
      "name": "ki0",
      "title": "ki0",
      "url": "https://ki0.webtech-uva.nl"
    },
    {
      "name": "ki1",
      "title": "ki1",
      "url": "https://ki1.webtech-uva.nl"
    },
    {
      "name": "ki2",
      "title": "ki2",
      "url": "https://ki2.webtech-uva.nl"
    },
    {
      "name": "ki3",
      "title": "ki3",
      "url": "https://ki3.webtech-uva.nl"
    },
    {
      "name": "ki4",
      "title": "ki4",
      "url": "https://ki4.webtech-uva.nl"
    },
    {
      "name": "ki5",
      "title": "ki5",
      "url": "https://ki5.webtech-uva.nl"
    },
    {
      "name": "ki6",
      "title": "ki6",
      "url": "https://ki6.webtech-uva.nl"
    },
    {
      "name": "ki7",
      "title": "ki7",
      "url": "https://ki7.webtech-uva.nl"
    },
    {
      "name": "ki8",
      "title": "ki8",
      "url": "https://ki8.webtech-uva.nl"
    },
    {
      "name": "ki9",
      "title": "ki9",
      "url": "https://ki9.webtech-uva.nl"
    },
    {
      "name": "ki10",
      "title": "ki10",
      "url": "https://ki10.webtech-uva.nl"
    },
    {
      "name": "ki11",
      "title": "ki11",
      "url": "https://ki11.webtech-uva.nl"
    },
    {
      "name": "ki12",
      "title": "ki12",
      "url": "https://ki12.webtech-uva.nl"
    },
    {
      "name": "ki13",
      "title": "ki13",
      "url": "https://ki13.webtech-uva.nl"
    },
    {
      "name": "ki14",
      "title": "ki14",
      "url": "https://ki14.webtech-uva.nl"
    },
    {
      "name": "ki15",
      "title": "ki15",
      "url": "https://ki15.webtech-uva.nl"
    },
    {
      "name": "ki16",
      "title": "ki16",
      "url": "https://ki16.webtech-uva.nl"
    },
    {
      "name": "ki17",
      "title": "ki17",
      "url": "https://ki17.webtech-uva.nl"
    },
    {
      "name": "ki18",
      "title": "ki18",
      "url": "https://ki18.webtech-uva.nl"
    },
    {
      "name": "ki19",
      "title": "ki19",
      "url": "https://ki19.webtech-uva.nl"
    },
    {
      "name": "ki20",
      "title": "ki20",
      "url": "https://ki20.webtech-uva.nl"
    },
    {
      "name": "ki21",
      "title": "ki21",
      "url": "https://ki21.webtech-uva.nl"
    },
    {
      "name": "ki22",
      "title": "ki22",
      "url": "https://ki22.webtech-uva.nl"
    },
    {
      "name": "ki23",
      "title": "ki23",
      "url": "https://ki23.webtech-uva.nl"
    },
    {
      "name": "ki24",
      "title": "ki24",
      "url": "https://ki24.webtech-uva.nl"
    },
    {
      "name": "ki25",
      "title": "ki25",
      "url": "https://ki25.webtech-uva.nl"
    },
    {
      "name": "ki26",
      "title": "ki26",
      "url": "https://ki26.webtech-uva.nl"
    },
    {
      "name": "ki27",
      "title": "ki27",
      "url": "https://ki27.webtech-uva.nl"
    },
    {
      "name": "ki28",
      "title": "ki28",
      "url": "https://ki28.webtech-uva.nl"
    },
    {
      "name": "ki29",
      "title": "ki29",
      "url": "https://ki29.webtech-uva.nl"
    },
    {
      "name": "ki30",
      "title": "ki30",
      "url": "https://ki30.webtech-uva.nl"
    },
    {
      "name": "ki31",
      "title": "ki31",
      "url": "https://ki31.webtech-uva.nl"
    },
    {
      "name": "ki32",
      "title": "ki32",
      "url": "https://ki32.webtech-uva.nl"
    },
    {
      "name": "wi0",
      "title": "wi0",
      "url": "https://wi0.webtech-uva.nl"
    }
  ]
}
